{
	"Demographics":["Male 16-24", "Male 25-34", "Male 35-44", "Male 45-54", 
					"Female 16-24", "Female 25-34", "Female 35-44", "Female 45-54"],

	"Maritial Status":["Married", "Single"],

	"Education":["High School",  "University", "Post Graduate"],
		
	"Social Segmentation":["Brand Followers", "Shoppers", "Sharers"],

	"Personal Interests":["Art & culture", "Health , fitness & Beauty", "Technology", "Home &. Liesure", "Fashion",],

	"Attitude":["Alturistic", "Aspirational", "Cosmopolitian", "Economical", "Image Concious", "Spontaneous"],
		
	"Social Networks":["Facebook", "Instagram", "Snapchat", "Twitter"],
}