[
    ["Which of these drinks brands have you heard of?", "gwi-ext.q1033a"],
    ["Which of these haircare / skincare / cosmetics brands do you use at least once a week?", "gwi-ext.q1038"],
    ["Which of these luxury fashion brands have you heard of?", "gwi-ext.q1030a"]
]