{
	"Tech":{
		"Persona1":{
			"Demographics":"Male 16-24",
			"Education":"High School",
			"Maritial Status":"Single",
			"Social Segmentation":"Brand Followers",
			"Personal Interests":["Tech Enthusiasts", "Health & Beauty"],
			"Attitude":["Alturistic", "Spontaneous"],
			"Social Networks":["Snapchat", "Twitter"]
		},
		"Persona2":{
			"Demographics":"Female 16-24",
			"Education":"University",
			"Maritial Status":"Single",
			"Social Segmentation":"Brand Followers",
			"Personal Interests":["Tech Enthusiasts", "Fashion"],
			"Attitude":["Alturistic", "Aspirational"],
			"Social Networks":["Snapchat", "Twitter"]
		},
		"Persona3":{
			"Demographics":"Male 25-34",
			"Education":"Post Graduate",
			"Maritial Status":"Married",
			"Social Segmentation":"Shoppers",
			"Personal Interests":["Tech Enthusiasts", "Home & Leisure"],
			"Attitude":["Economical", "Cosmopolitian"],
			"Social Networks":["Facebook", "Instagram"]
		}
	},

	"Education":{
		"Persona1":{
			"Demographics":"Male 16-24",
			"Education":"High School",
			"Maritial Status":"Single",
			"Social Segmentation":"Brand Followers",
			"Personal Interests":["Tech Enthusiasts", "Art & Culture"],
			"Attitude":["Alturistic", "Spontaneous"],
			"Social Networks":["Snapchat", "Twitter"]
		},
		"Persona2":{
			"Demographics":"Female 16-24",
			"Education":"High School",
			"Maritial Status":"Single",
			"Social Segmentation":"Brand Followers",
			"Personal Interests":["Health & Beauty", "Fashion"],
			"Attitude":["Alturistic", "Image Concious"],
			"Social Networks":["Snapchat", "Instagram"]
		},
		"Persona3":{
			"Demographics":"Female 25-34",
			"Education":"University",
			"Maritial Status":"Single",
			"Social Segmentation":"Brand Followers",
			"Personal Interests":["Health & Beauty", "Art & Culture"],
			"Attitude":["Economical", "Aspirational"],
			"Social Networks":["Facebook", "Instagram"]
		}
	},

	"Media":{
		"Persona1":{
			"Demographics":"Male 25-34",
			"Education":"University",
			"Maritial Status":"Single",
			"Social Segmentation":"Brand Followers",
			"Personal Interests":["Tech Enthusiasts", "Art & Culture"],
			"Attitude":["Alturistic", "Image Concious"],
			"Social Networks":["Snapchat", "Instagram"]
		},
		"Persona2":{
			"Demographics":"Female 25-34",
			"Education":"High School",
			"Maritial Status":"Married",
			"Social Segmentation":"Shoppers",
			"Personal Interests":["Health & Beauty", "Art & Culture"],
			"Attitude":["Economical", "Aspirational"],
			"Social Networks":["Snapchat", "Instagram"]
		},
		"Persona3":{
			"Demographics":"Female 35-44",
			"Education":"Post Graduate",
			"Maritial Status":"Married",
			"Social Segmentation":"Shoppers",
			"Personal Interests":["Health & Beauty", "Home & Leisure"],
			"Attitude":["Economical", "Image Concious"],
			"Social Networks":["Facebook", "Instagram"]
		}
	},

	"Bussiness":{
		"Persona1":{
			"Demographics":"Male 35-44",
			"Education":"Post Graduate",
			"Maritial Status":"Married",
			"Social Segmentation":"Shoppers",
			"Personal Interests":["Tech Enthusiasts", "Home & Leisure"],
			"Attitude":["Economical", "Image Concious"],
			"Social Networks":["Facebook", "Twitter"]
		},
		"Persona2":{
			"Demographics":"Male 45-54",
			"Education":"Post Graduate",
			"Maritial Status":"Single",
			"Social Segmentation":"Shoppers",
			"Personal Interests":["Tech Enthusiasts", "Art & Culture"],
			"Attitude":["Economical", "Aspirational"],
			"Social Networks":["Facebook", "Twitter"]
		},
		"Persona3":{
			"Demographics":"Female 35-44",
			"Education":"Post Graduate",
			"Maritial Status":"Married",
			"Social Segmentation":"Brand Followers",
			"Personal Interests":["Health & Beauty", "Home & Leisure"],
			"Attitude":["Economical", "Cosmopolitian"],
			"Social Networks":["Facebook", "Instagram"]
		}
	},

	"Food&Health":{
		"Persona1":{
			"Demographics":"Male 25-34",
			"Education":"University",
			"Maritial Status":"Singlei",
			"Social Segmentation":"Shoppers",
			"Personal Interests":["Tech Enthusiasts", "Health"],
			"Attitude":["Alturistic", "Cosmopolitian"],
			"Social Networks":["Facebook", "Instagram"]
		},
		"Persona2":{
			"Demographics":"Female 25-34",
			"Education":"University",
			"Maritial Status":"Married",
			"Social Segmentation":"Sharers",
			"Personal Interests":["Home & Leisure", "Art & Culture"],
			"Attitude":["Image Concious", "Cosmopolitian"],
			"Social Networks":["Facebook", "Twitter"]
		},
		"Persona3":{
			"Demographics":"Female 35-44",
			"Education":"Post Graduate",
			"Maritial Status":"Married",
			"Social Segmentation":"Sharers",
			"Personal Interests":["Fashion", "Home & Leisure"],
			"Attitude":["Aspirational", "Image Concious"],
			"Social Networks":["Facebook", "Instagram"]
		}
	},

	"Lifestyle":{
		"Persona1":{
			"Demographics":"Male 16-24",
			"Education":"High School",
			"Maritial Status":"Single",
			"Social Segmentation":"Shoppers",
			"Personal Interests":["Tech Enthusiasts", "Fashion"],
			"Attitude":["Alturistic", "Image Concious"],
			"Social Networks":["Snapchat", "Instagram"]
		},
		"Persona2":{
			"Demographics":"Female 16-24",
			"Education":"High School",
			"Maritial Status":"Single",
			"Social Segmentation":"Brand Enthusiasts",
			"Personal Interests":["Fashion", "Art & Culture"],
			"Attitude":["Alturistic", "Spontaneous"],
			"Social Networks":["Snapchat", "Twitter"]
		},
		"Persona3":{
			"Demographics":"Female 35-44",
			"Education":"University",
			"Maritial Status":"Single",
			"Social Segmentation":"Sharers",
			"Personal Interests":["Health & Beauty", "Home & Leisure"],
			"Attitude":["Cosmopolitian", "Aspirational"],
			"Social Networks":["Facebook", "Twitter"]
		}
	},

	"Environment":{
		"Persona1":{
			"Demographics":"Male 25-34",
			"Education":"University",
			"Maritial Status":"Married",
			"Social Segmentation":"Sharers",
			"Personal Interests":["Home & Leisure", "Fashion"],
			"Attitude":["Economical", "Image Concious"],
			"Social Networks":["Snapchat", "Instagram"]
		},
		"Persona2":{
			"Demographics":"Male 25-34",
			"Education":"University",
			"Maritial Status":"Married",
			"Social Segmentation":"Sharers",
			"Personal Interests":["Tech Enthusiasts", "Fashion"],
			"Attitude":["Economical", "Spontaneous"],
			"Social Networks":["Facebook", "Instagram"]
		},
		"Persona3":{
			"Demographics":"Female 35-44",
			"Education":"Post Graduate",
			"Maritial Status":"Married",
			"Social Segmentation":"Shoppers",
			"Personal Interests":["Health & Beauty", "Home & Leisure"],
			"Attitude":["Cosmopolitian", "Economical"],
			"Social Networks":["Facebook", "Twitter"]
		}
	}
}